<?xml version="1.0" encoding="UTF-8"?>
<glyph name="slash" format="2">
	<advance width="150.5"/>
	<unicode hex="002F"/>
	<outline>
		<contour>
			<point x="23" y="-50" type="line"/>
			<point x="27.5" y="-50" type="line"/>
			<point x="127.5" y="750" type="line"/>
			<point x="123" y="750" type="line"/>
		</contour>
	</outline>
	<lib>
		<dict>
			<key>public.markColor</key>
			<string>0.67,0.95,0.38,1</string>
		</dict>
	</lib>
</glyph>
