<?xml version="1.0" encoding="UTF-8"?>
<glyph name="uni0304.narrow" format="2">
	<advance width="0"/>
	<anchor x="-108" y="800" name="top"/>
	<anchor x="-108" y="700" name="_top"/>
	<outline>
		<contour>
			<point x="-193" y="794" type="line"/>
			<point x="-23" y="794" type="line"/>
			<point x="-23" y="800" type="line"/>
			<point x="-193" y="800" type="line"/>
		</contour>
	</outline>
	<lib>
		<dict>
			<key>public.markColor</key>
			<string>0.67,0.95,0.38,1</string>
		</dict>
	</lib>
</glyph>
