<?xml version="1.0" encoding="UTF-8"?>
<glyph name="uni0304" format="2">
	<advance width="0"/>
	<unicode hex="0304"/>
	<anchor x="-148" y="800" name="top"/>
	<anchor x="-148" y="700" name="_top"/>
	<outline>
		<contour>
			<point x="-271" y="794" type="line"/>
			<point x="-21" y="794" type="line"/>
			<point x="-21" y="800" type="line"/>
			<point x="-271" y="800" type="line"/>
		</contour>
	</outline>
	<lib>
		<dict>
			<key>public.markColor</key>
			<string>0.67,0.95,0.38,1</string>
		</dict>
	</lib>
</glyph>
