<?xml version="1.0" encoding="UTF-8"?>
<glyph name="Oslash.ss03" format="2">
	<advance width="557"/>
	<outline>
		<contour>
			<point x="86" y="-50" type="line"/>
			<point x="121" y="-50" type="line"/>
			<point x="468" y="750" type="line"/>
			<point x="433" y="750" type="line"/>
		</contour>
		<component base="O.ss03"/>
	</outline>
	<lib>
		<dict>
			<key>com.schriftgestaltung.Glyphs.ComponentInfo</key>
			<array>
				<dict>
					<key>alignment</key>
					<integer>-1</integer>
					<key>index</key>
					<integer>0</integer>
					<key>name</key>
					<string>O.ss03</string>
				</dict>
			</array>
			<key>public.markColor</key>
			<string>0.67,0.95,0.38,1</string>
		</dict>
	</lib>
</glyph>
