<?xml version="1.0" encoding="UTF-8"?>
<glyph name="Wcircumflex.ss03" format="2">
	<advance width="581"/>
	<outline>
		<component base="W.ss03"/>
		<component base="uni0302" xOffset="466"/>
	</outline>
	<lib>
		<dict>
			<key>public.markColor</key>
			<string>0.67,0.95,0.38,1</string>
		</dict>
	</lib>
</glyph>
