<?xml version="1.0" encoding="UTF-8"?>
<glyph name="AE.ss04" format="2">
	<advance width="585.5"/>
	<outline>
		<contour>
			<point x="24" y="0" type="line"/>
			<point x="32.5" y="0" type="line"/>
			<point x="287.5" y="700" type="line"/>
			<point x="279" y="700" type="line"/>
		</contour>
		<contour>
			<point x="227.5" y="0" type="line"/>
			<point x="447.5" y="0" type="line"/>
			<point x="447.5" y="8" type="line"/>
			<point x="227.5" y="8" type="line"/>
		</contour>
		<contour>
			<point x="367.5" y="0" type="line"/>
			<point x="503.5" y="0" type="line"/>
			<point x="503.5" y="8" type="line"/>
			<point x="367.5" y="8" type="line"/>
		</contour>
		<contour>
			<point x="-25" y="0" type="line"/>
			<point x="103" y="0" type="line"/>
			<point x="103" y="8" type="line"/>
			<point x="-25" y="8" type="line"/>
		</contour>
		<contour>
			<point x="287.5" y="0" type="line"/>
			<point x="387.5" y="0" type="line"/>
			<point x="387.5" y="700" type="line"/>
			<point x="287.5" y="700" type="line"/>
		</contour>
		<contour>
			<point x="536.5" y="532" type="line"/>
			<point x="545.5" y="532" type="line"/>
			<point x="520.5" y="700" type="line"/>
			<point x="479.5" y="700" type="line"/>
		</contour>
		<contour>
			<point x="459.5" y="413" type="line"/>
			<point x="487.5" y="413" type="line"/>
			<point x="487.5" y="531" type="line"/>
			<point x="477.5" y="531" type="line"/>
		</contour>
		<contour>
			<point x="477.5" y="303" type="line"/>
			<point x="487.5" y="303" type="line"/>
			<point x="487.5" y="421" type="line"/>
			<point x="459.5" y="421" type="line"/>
		</contour>
		<contour>
			<point x="377.5" y="413" type="line"/>
			<point x="487.5" y="413" type="line"/>
			<point x="487.5" y="421" type="line"/>
			<point x="377.5" y="421" type="line"/>
		</contour>
		<contour>
			<point x="198" y="692" type="line"/>
			<point x="358" y="692" type="line"/>
			<point x="358" y="700" type="line"/>
			<point x="198" y="700" type="line"/>
		</contour>
		<contour>
			<point x="479.5" y="0" type="line"/>
			<point x="520.5" y="0" type="line"/>
			<point x="575.5" y="168" type="line"/>
			<point x="566.5" y="168" type="line"/>
		</contour>
		<contour>
			<point x="387.5" y="692" type="line"/>
			<point x="513.5" y="692" type="line"/>
			<point x="513.5" y="700" type="line"/>
			<point x="387.5" y="700" type="line"/>
		</contour>
		<contour>
			<point x="130" y="279" type="line"/>
			<point x="330" y="279" type="line"/>
			<point x="330" y="369" type="line"/>
			<point x="163" y="369" type="line"/>
		</contour>
	</outline>
	<lib>
		<dict>
			<key>com.schriftgestaltung.Glyphs.leftMetricsKey</key>
			<string>A</string>
			<key>com.schriftgestaltung.Glyphs.rightMetricsKey</key>
			<string>E</string>
			<key>public.markColor</key>
			<string>0.67,0.95,0.38,1</string>
		</dict>
	</lib>
</glyph>
